<?xml version="1.0" encoding="utf-8"?>
<svg version="1.1"
	 id="Layer_1" xmlns:ev="http://www.w3.org/2001/xml-events" xmlns:v="http://schemas.microsoft.com/visio/2003/SVGExtensions/"
	 xmlns="http://www.w3.org/2000/svg" xmlns:xlink="http://www.w3.org/1999/xlink" x="0px" y="0px" width="127.559px"
	 height="56.693px" viewBox="18.24 18.24 127.559 56.693" enable-background="new 18.24 18.24 127.559 56.693" xml:space="preserve"
	>
<g>
	<g id="shape1-1" transform="translate(18.24,-18.24)">
		<title>Box.36</title>
		<rect x="0" y="36.48" fill="#646464" width="127.559" height="56.693"/>
	</g>
</g>
</svg>
