<svg xmlns="http://www.w3.org/2000/svg" xmlns:xlink="http://www.w3.org/1999/xlink" xmlns:ev="http://www.w3.org/2001/xml-events"
		xmlns:v="http://schemas.microsoft.com/visio/2003/SVGExtensions/" width="1.93955in" height="0.88312in"
		viewBox="0 0 139.648 63.5846" xml:space="preserve" color-interpolation-filters="sRGB" class="st2">

<linearGradient id="anim"  x1="0%" y1="100%">
      <stop offset="0%" stop-color="#C7C402" stop-opacity="1">
		<animate attributeName="stop-color" 
		values="#C7C402;#FEFE82;#C7C402" dur="500ms" repeatCount="indefinite"/>
		</stop>
    </linearGradient>    
    		<g id="shape1-1" v:mID="1" v:groupContext="shape" transform="translate(0.375,-0.375)">
			<path fill="url(#anim)"   d="M28.35 1.22 L28.35 18.23 L0 18.23 L0 43.74 L18.43 43.74 L18.43 49.41 L32.6 49.41 L32.6 56.03 L60.94 56.03 L60.94
						 58.39 L93.54 58.39 L93.54 55.55 L110.55 55.55 L110.55 63.58 L138.9 63.58 L138.9 1.22 L114.8 1.22 L114.8
						 9.25 L92.13 9.25 L92.13 0.75 L28.35 1.22 Z" class="st1"/>
		</g>
</svg>
