<?xml version="1.0" encoding="UTF-8"?>
<svg width="120px" height="120px" viewBox="0 0 120 120" version="1.1" xmlns="http://www.w3.org/2000/svg" xmlns:xlink="http://www.w3.org/1999/xlink">
    <!-- Generator: Sketch 53.2 (72643) - https://sketchapp.com -->
    <title>btn_app_tm_default</title>
    <desc>Created with Sketch.</desc>
    <g id="spec" stroke="none" stroke-width="1" fill="none" fill-rule="evenodd">
        <g id="Artboard" transform="translate(-731.000000, -1042.000000)">
            <g id="btn_app_tm_default" transform="translate(731.000000, 1042.000000)">
                <g id="Group-26">
                    <rect id="Rectangle-Copy-93" fill="#000000" x="0" y="0" width="120" height="120" rx="6"></rect>
                    <g id="Group-13-Copy-2" transform="translate(34.000000, 23.000000)" stroke-width="2">
                        <path d="M5,37 L20,37 L20,36 L5,36 L5,37 Z" id="Path-Copy-12" stroke="#81848B"></path>
                        <path d="M1,33 L24,33 L24,28 L1,28 L1,33 Z" id="Path-Copy-14" stroke="#81848B"></path>
                        <path d="M16.7394222,1 L8.25978565,1 L8.25978565,8.66640457 L8.2425577,8.85122637 L5.20559167,25 L19.7943542,25 L16.7566583,8.85126975 L16.7394222,8.66640457 L16.7394222,1 Z" id="Path-Copy-16" stroke="#81848B"></path>
                        <path d="M1,50 L24,50 L24,40 L1,40 L1,50 Z" id="Path-Copy-18" stroke="#81848B"></path>
                        <path d="M17.3996734,53 L8.59951016,53 L8.59951016,67.4779853 L5,70.9509646 L5,73 L5.69983672,73 L5.69983672,71.2627225 L8.90302254,71.2627225 L10.7031858,73 L14.6998367,73 L14.6998367,71.2627225 L17.9039708,71.2627225 L19.7033176,73 L21,73 L21,70.9510315 L17.3996734,67.4780522 L17.3996734,53 Z" id="Path-Copy-20" stroke="#81848B"></path>
                        <path d="M28.0073045,58 L29.1070903,58 L31.2664171,51.9306597 L36.6737726,49.6874767 L42.4895368,52.4512559 L45.4569165,49.4854264 L42.6931354,43.6658196 L44.9341704,38.2562694 L51,36.0981526 L51,31.9004331 L44.9342213,29.7438536 L42.693147,24.3342083 L45.4570073,18.513675 L42.4894584,15.5464933 L36.6738315,18.3109669 L31.2664608,16.0677775 L29.1071495,10 L28,10 L28,21.0042551 C34.6490664,21.5152304 39.888471,27.0785545 39.888471,33.8608784 C39.888471,40.644154 34.6496997,46.2070589 28.0005739,46.7182544 L28.0073045,58 Z" id="Fill-50-Copy-2" stroke="#6699F0"></path>
                    </g>
                </g>
            </g>
        </g>
    </g>
</svg>