<?xml version="1.0" encoding="UTF-8"?>
<svg width="120px" height="120px" viewBox="0 0 120 120" version="1.1" xmlns="http://www.w3.org/2000/svg" xmlns:xlink="http://www.w3.org/1999/xlink">
    <!-- Generator: Sketch 53.2 (72643) - https://sketchapp.com -->
    <title>btn_app_analysis_default</title>
    <desc>Created with Sketch.</desc>
    <g id="spec" stroke="none" stroke-width="1" fill="none" fill-rule="evenodd">
        <g id="Artboard" transform="translate(-191.000000, -1042.000000)">
            <g id="btn_app_analysis_default" transform="translate(191.000000, 1042.000000)">
                <rect id="Rectangle-Copy-89" fill="#000000" x="0" y="0" width="120" height="120" rx="6"></rect>
                <g id="Group-9-Copy-2" transform="translate(20.000000, 20.000000)" fill-rule="nonzero" stroke-width="2">
                    <path d="M80,80 L8,80 C3.581722,80 5.41083001e-16,76.418278 0,72 L0,0" id="Rectangle-Copy-16" stroke="#81848B"></path>
                    <polyline id="Path-4" stroke="#6699F0" points="7 51 24.6217143 33.3782857 42.2434286 51 75.2434286 18"></polyline>
                    <polyline id="Rectangle" stroke="#6699F0" points="62 17 75 17 75 30"></polyline>
                </g>
            </g>
        </g>
    </g>
</svg>