<?xml version="1.0" encoding="UTF-8"?>
<svg width="312px" height="75px" viewBox="0 0 312 75" version="1.1" xmlns="http://www.w3.org/2000/svg" xmlns:xlink="http://www.w3.org/1999/xlink">
    <!-- Generator: Sketch 53.2 (72643) - https://sketchapp.com -->
    <title>layout_view_info</title>
    <desc>Created with Sketch.</desc>
    <g id="spec" stroke="none" stroke-width="1" fill="none" fill-rule="evenodd">
        <g id="Artboard" transform="translate(-875.000000, -190.000000)">
            <g id="layout_view_info" transform="translate(875.000000, 190.000000)">
                <rect id="Rectangle-Copy-46" fill="#AED543" x="0" y="0" width="56" height="16" rx="4"></rect>
                <rect id="Rectangle-Copy-52" fill="#1E1E23" fill-rule="nonzero" x="0" y="16" width="56" height="59" rx="4"></rect>
                <rect id="Rectangle-Copy-53" fill="#1E1E23" fill-rule="nonzero" x="64" y="16" width="56" height="59" rx="4"></rect>
                <rect id="Rectangle-Copy-69" fill="#F19537" x="64" y="0" width="56" height="16" rx="4"></rect>
                <rect id="Rectangle-Copy-73" fill="#B42F1A" x="128" y="0" width="56" height="16" rx="4"></rect>
                <rect id="Rectangle-Copy-74" fill="#AEAEAF" x="192" y="0" width="56" height="16" rx="4"></rect>
                <rect id="Rectangle-Copy-75" fill="#1E1E23" fill-rule="nonzero" x="128" y="16" width="56" height="59" rx="4"></rect>
                <rect id="Rectangle-Copy-76" fill="#1E1E23" fill-rule="nonzero" x="192" y="16" width="56" height="59" rx="4"></rect>
                <rect id="Rectangle-Copy-77" fill="#1E1E23" fill-rule="nonzero" x="256" y="0" width="56" height="75" rx="4"></rect>
            </g>
        </g>
    </g>
</svg>