<svg xmlns="http://www.w3.org/2000/svg" xmlns:xlink="http://www.w3.org/1999/xlink" xmlns:ev="http://www.w3.org/2001/xml-events"
		xmlns:v="http://schemas.microsoft.com/visio/2003/SVGExtensions/" width="2.12251in" height="2.60977in"
		viewBox="0 0 152.821 187.904" xml:space="preserve" color-interpolation-filters="sRGB" class="st2">

	<linearGradient id="anim"  x1="0%" y1="100%">
      <stop offset="0%" stop-color="#C7C402" stop-opacity="1">
		<animate attributeName="stop-color" 
		values="#C7C402;#FEFE82;#C7C402" dur="500ms" repeatCount="indefinite"/>
		</stop>
    </linearGradient>


		<g id="shape1-1" v:mID="1" v:groupContext="shape" transform="translate(0.125,-0.125)">
			<title>Sheet.1</title>
			<path fill="yellow"  stroke='pink' stroke-width='15' d="M0 187.9 L0 0.25 L134.65 0.25 L134.65 28.66 L141.32 28.66 L141.32 102.86 L152.57 102.86 L152.57 152.47 L141.73
						 152.47 L141.73 187.9 L0 187.9 Z" class="st1"/>
		</g>
</svg>
